snail_label,place_label
"tricula","Córrego Novo"
"oncomelania","Córrego Novo"
"biomphalaria","Córrego Novo"
"biomphalaria","Dionísio"
"oncomelania","Dionísio"
"tricula","Dionísio"
"bulinus","Dionísio"
"oncomelania","Marliéria"
"biomphalaria","Marliéria"
"biomphalaria","Pingo d'Água"
"oncomelania","Pingo d'Água"
"tricula","Pingo d'Água"
"oncomelania","Rio Sacramento"
"tricula","São Domingos do Prata"
"oncomelania","São Domingos do Prata"
"biomphalaria","São José do Goiabal"
"oncomelania","São José do Goiabal"
"tricula","São José do Goiabal"
"tricula","São Pedro dos Ferros"
"biomphalaria","São Pedro dos Ferros"